<?xml version="1.0" encoding="utf-8"?>
<!-- Generator: Adobe Illustrator 25.0.0, SVG Export Plug-In . SVG Version: 6.00 Build 0)  -->
<svg version="1.1" id="Layer_1" xmlns="http://www.w3.org/2000/svg" xmlns:xlink="http://www.w3.org/1999/xlink" x="0px" y="0px"
	 viewBox="0 0 453.9 205" style="enable-background:new 0 0 453.9 205;" xml:space="preserve">
<style type="text/css">
	.st0{fill:#2B2B2B;}
	.st1{fill:#231F20;}
	.st2{fill:#FCB449;}
</style>
<g id="Layer_2_1_">
	<g id="Layer_1-2">
		<path class="st0" d="M12,0.1h429.9c6.6,0,11.9,5.3,11.9,11.9v181c0,6.6-5.3,11.9-11.9,11.9H12c-6.6,0-11.9-5.3-11.9-11.9V12
			C0.1,5.4,5.4,0.1,12,0.1z"/>
		<path class="st1" d="M441.9,0.2c6.5,0,11.7,5.3,11.8,11.8v181c0,6.5-5.3,11.7-11.8,11.8H12c-6.5,0-11.7-5.3-11.8-11.8V12
			C0.3,5.5,5.5,0.3,12,0.2H441.9 M441.9,0H12C5.4,0,0,5.4,0,12v181c0,6.6,5.4,12,12,12h429.9c6.6,0,12-5.4,12-12V12
			C453.9,5.4,448.5,0,441.9,0z"/>
		
			<image style="overflow:visible;enable-background:new    ;" width="19" height="15" xlink:href="twitter-card.png"  transform="matrix(0.95 0 0 0.93 410.71 29.39)">
		</image>
		<ellipse class="st2" cx="68.7" cy="53.8" rx="32.2" ry="32"/>
	</g>
</g>
</svg>
